…
``` r
temperature %>% 
  mutate(date = ymd(date)) %>% 
  filter(year(date) == 2019)
```

    ## # A tibble: 2,114 x 5
    ##    city_name date       temperature temp_type site_name    
    ##    <chr>     <date>           <dbl> <chr>     <chr>        
    ##  1 PERTH     2019-01-01        34.1 max       PERTH AIRPORT
    ##  2 PERTH     2019-01-02        24.6 max       PERTH AIRPORT
    ##  3 PERTH     2019-01-03        24.5 max       PERTH AIRPORT
    ##  4 PERTH     2019-01-04        25.5 max       PERTH AIRPORT
    ##  5 PERTH     2019-01-05        32.7 max       PERTH AIRPORT
    ##  6 PERTH     2019-01-06        36.7 max       PERTH AIRPORT
    ##  7 PERTH     2019-01-07        32.5 max       PERTH AIRPORT
    ##  8 PERTH     2019-01-08        33.9 max       PERTH AIRPORT
    ##  9 PERTH     2019-01-09        31.5 max       PERTH AIRPORT
    ## 10 PERTH     2019-01-10        26.1 max       PERTH AIRPORT
    ## # … with 2,104 more rows
…
``` r
temperature %>% 
  mutate(
    date = ymd(date),
    year = year(date)
  ) %>% 
  count(year) %>% 
  arrange(desc(year))
```

    ## # A tibble: 110 x 2
    ##     year     n
    ##    <dbl> <int>
    ##  1  2019  2114
    ##  2  2018  5110
    ##  3  2017  5110
    ##  4  2016  5124
    ##  5  2015  5110
    ##  6  2014  5110
    ##  7  2013  5110
    ##  8  2012  5124
    ##  9  2011  5110
    ## 10  2010  5110
    ## # … with 100 more rows
…
